[MLog-Init-Reporter] 2018-10-18T08:10:01.949+01:00 INFO [com.mchange.v2.log.MLog]  MLog clients using java 1.4+ standard logging.
[vert.x-eventloop-thread-0] 2018-10-18T08:10:02.134+01:00 INFO [com.mchange.v2.c3p0.C3P0Registry]  Initializing c3p0-0.9.5.2 [built 08-December-2015 22:06:04 -0800; debug? true; trace: 10]
[vert.x-eventloop-thread-1] 2018-10-18T08:10:02.486+01:00 INFO [io.vertx.core.impl.launcher.commands.VertxIsolatedDeployer]  Succeeded in deploying verticle
[vertx-jdbc-service-get-connection-thread] 2018-10-18T08:10:08.821+01:00 INFO [com.mchange.v2.c3p0.impl.AbstractPoolBackedDataSource]  Initializing c3p0 pool... com.mchange.v2.c3p0.ComboPooledDataSource [ acquireIncrement -> 3, acquireRetryAttempts -> 30, acquireRetryDelay -> 1000, autoCommitOnClose -> false, automaticTestTable -> null, breakAfterAcquireFailure -> false, checkoutTimeout -> 0, connectionCustomizerClassName -> null, connectionTesterClassName -> com.mchange.v2.c3p0.impl.DefaultConnectionTester, contextClassLoaderSource -> caller, dataSourceName -> z8kfsx9y116l35ejvfosm|6f93dfef, debugUnreturnedConnectionStackTraces -> false, description -> null, driverClass -> org.postgresql.Driver, extensions -> {}, factoryClassLocation -> null, forceIgnoreUnresolvedTransactions -> false, forceSynchronousCheckins -> false, forceUseNamedDriverClass -> false, identityToken -> z8kfsx9y116l35ejvfosm|6f93dfef, idleConnectionTestPeriod -> 0, initialPoolSize -> 3, jdbcUrl -> jdbc:postgresql://localhost:5432/dictionary, maxAdministrativeTaskTime -> 0, maxConnectionAge -> 0, maxIdleTime -> 0, maxIdleTimeExcessConnections -> 0, maxPoolSize -> 15, maxStatements -> 0, maxStatementsPerConnection -> 0, minPoolSize -> 3, numHelperThreads -> 3, preferredTestQuery -> null, privilegeSpawnedThreads -> false, properties -> {password=******, user=******}, propertyCycle -> 0, statementCacheNumDeferredCloseThreads -> 0, testConnectionOnCheckin -> false, testConnectionOnCheckout -> false, unreturnedConnectionTimeout -> 0, userOverrides -> {}, usesTraditionalReflectiveProxies -> false ]
